<?xml version="1.0" encoding="UTF-8" standalone="no"?>
<svg
   xmlns:dc="http://purl.org/dc/elements/1.1/"
   xmlns:cc="http://creativecommons.org/ns#"
   xmlns:rdf="http://www.w3.org/1999/02/22-rdf-syntax-ns#"
   xmlns:svg="http://www.w3.org/2000/svg"
   xmlns="http://www.w3.org/2000/svg"
   xmlns:sodipodi="http://sodipodi.sourceforge.net/DTD/sodipodi-0.dtd"
   xmlns:inkscape="http://www.inkscape.org/namespaces/inkscape"
   width="460mm"
   height="205mm"
   viewBox="0 0 460 205"
   version="1.1"
   id="svg8"
   sodipodi:docname="logo_01_bg.svg"
   inkscape:version="1.0.2 (e86c870879, 2021-01-15, custom)">
  <defs
     id="defs2">
    <inkscape:path-effect
       effect="powerclip"
       id="path-effect1148"
       is_visible="true"
       lpeversion="1"
       inverse="true"
       flatten="false"
       hide_clip="false"
       message="Use fill-rule evenodd on &lt;b&gt;fill and stroke&lt;/b&gt; dialog if no flatten result after convert clip to paths." />
    <rect
       x="80.130951"
       y="124.73214"
       width="19.276787"
       height="21.922619"
       id="rect23" />
    <clipPath
       clipPathUnits="userSpaceOnUse"
       id="clipPath1144">
      <path
         style="display:none;fill:#ff00ff;stroke-width:0.317193"
         d="m 336.96032,93.572584 -26.4418,15.266246 h -2.70785 v 1.56373 l -9.11831,5.26428 a 36.667001,36.667001 0 0 0 -32.02543,-18.811769 36.667001,36.667001 0 0 0 -36.66702,36.667009 36.667001,36.667001 0 0 0 36.66702,36.66701 36.667001,36.667001 0 0 0 36.17351,-30.67048 h 4.97023 37.67161 V 108.83883 H 329.3029 l 12.35377,-7.13238 z"
         id="path1146" />
      <path
         id="lpe_path-effect1148"
         style="fill:#ff00ff;stroke-width:0.317193"
         class="powerclip"
         d="m 194.99999,62.043968 h 143.334 V 205.37797 h -143.334 z m 141.96033,31.528616 -26.4418,15.266246 h -2.70785 v 1.56373 l -9.11831,5.26428 a 36.667001,36.667001 0 0 0 -32.02543,-18.811769 36.667001,36.667001 0 0 0 -36.66702,36.667009 36.667001,36.667001 0 0 0 36.66702,36.66701 36.667001,36.667001 0 0 0 36.17351,-30.67048 h 4.97023 37.67161 V 108.83883 H 329.3029 l 12.35377,-7.13238 z" />
    </clipPath>
    <clipPath
       clipPathUnits="userSpaceOnUse"
       id="clipPath1180">
      <rect
         style="fill:#d40000;stroke-width:0.264583"
         id="rect1182"
         width="600.60419"
         height="200.70535"
         x="0"
         y="0.37797621"
         ry="17.991667" />
    </clipPath>
  </defs>
  <sodipodi:namedview
     id="base"
     pagecolor="#ffffff"
     bordercolor="#666666"
     borderopacity="1.0"
     inkscape:pageopacity="0.0"
     inkscape:pageshadow="2"
     inkscape:zoom="0.35355339"
     inkscape:cx="950.93707"
     inkscape:cy="998.79843"
     inkscape:document-units="mm"
     inkscape:current-layer="layer1"
     inkscape:document-rotation="0"
     showgrid="false"
     inkscape:snap-object-midpoints="false"
     inkscape:window-width="2560"
     inkscape:window-height="1361"
     inkscape:window-x="-9"
     inkscape:window-y="-9"
     inkscape:window-maximized="1" />
  <metadata
     id="metadata5">
    <rdf:RDF>
      <cc:Work
         rdf:about="">
        <dc:format>image/svg+xml</dc:format>
        <dc:type
           rdf:resource="http://purl.org/dc/dcmitype/StillImage" />
        <dc:title />
      </cc:Work>
    </rdf:RDF>
  </metadata>
  <g
     inkscape:label="Layer 1"
     inkscape:groupmode="layer"
     id="layer1">
    <text
       xml:space="preserve"
       style="font-style:normal;font-weight:normal;font-size:10.5833px;line-height:1.25;font-family:sans-serif;fill:#000000;fill-opacity:1;stroke:none;stroke-width:0.264583"
       x="80.508926"
       y="123.22024"
       id="text19"><tspan
         id="tspan17"
         x="80.508926"
         y="123.22024"
         style="stroke-width:0.264583"
         sodipodi:role="line" /></text>
    <text
       xml:space="preserve"
       id="text21"
       style="font-style:normal;font-weight:normal;font-size:10.5833px;line-height:1.25;font-family:sans-serif;white-space:pre;shape-inside:url(#rect23);fill:#000000;fill-opacity:1;stroke:none;" />
    <g
       id="Logo"
       transform="matrix(0.87302246,0,0,0.87302246,32.44802,27.160986)"
       inkscape:export-xdpi="96"
       inkscape:export-ydpi="96">
      <rect
         style="fill:#000000;stroke-width:0.264583"
         id="rect850"
         width="456.98587"
         height="199.62202"
         x="2.1166666"
         y="2.494643"
         ry="74.083336" />
      <g
         id="g873">
        <g
           id="g1170"
           clip-path="url(#clipPath1180)"
           transform="matrix(0.86080517,0,0,0.86080517,41.38507,11.165112)"
           inkscape:export-xdpi="96"
           inkscape:export-ydpi="96">
          <g
             id="g1155">
            <path
               style="fill:#ffcc00;stroke-width:0.264583"
               id="path44"
               clip-path="url(#clipPath1144)"
               inkscape:path-effect="#path-effect1148"
               sodipodi:type="arc"
               sodipodi:cx="266.66699"
               sodipodi:cy="133.71097"
               sodipodi:rx="66.667"
               sodipodi:ry="66.667"
               d="m 333.33399,133.71097 a 66.667,66.667 0 0 1 -66.667,66.667 66.667,66.667 0 0 1 -66.667,-66.667 66.667,66.667 0 0 1 66.667,-66.667002 66.667,66.667 0 0 1 66.667,66.667002 z" />
            <rect
               style="fill:#ffcc00;stroke-width:0.264583"
               id="rect67"
               width="52.010639"
               height="16.837986"
               x="302.61499"
               y="132.86536"
               ry="8.418993" />
            <rect
               style="fill:#ffcc00;stroke-width:0.298003"
               id="rect117"
               width="128.58749"
               height="15.775356"
               x="102.17776"
               y="243.13329"
               ry="7.8876781"
               transform="rotate(-30)" />
          </g>
          <rect
             style="fill:#ffcc00;stroke-width:0.264583"
             id="rect27"
             width="30"
             height="200"
             x="0"
             y="0.37797621"
             ry="15" />
          <rect
             style="fill:#ffcc00;stroke-width:0.264583"
             id="rect31"
             width="30"
             height="200"
             x="170"
             y="0.37797621"
             ry="15" />
          <path
             id="rect37"
             style="fill:#ffcc00;stroke-width:0.264583"
             d="m -20.20837,-41.599923 c -3.834286,0 -7.668559,1.468938 -10.606588,4.406966 -5.876056,5.876057 -5.876056,15.337118 0,21.213175 L 89.393206,104.22838 c 2.754403,2.75441 6.296409,4.21776 9.88777,4.38992 0.47885,0.0229 0.958794,0.0229 1.437644,0 3.59136,-0.17216 7.13337,-1.63551 9.88777,-4.38992 L 230.81455,-15.979782 c 5.87606,-5.876057 5.87606,-15.337118 0,-21.213175 -5.87606,-5.876057 -15.33712,-5.876057 -21.21317,0 L 99.999796,72.408621 -9.6017823,-37.192957 c -2.9380287,-2.938028 -6.7723017,-4.406966 -10.6065877,-4.406966 z" />
          <rect
             style="fill:#ffcc00;stroke-width:0.264583"
             id="rect1157"
             width="30"
             height="200"
             x="346.98587"
             y="0"
             ry="15" />
          <rect
             style="fill:#ffcc00;stroke-width:0.19622"
             id="rect1159"
             width="30"
             height="110"
             x="170"
             y="-456.98587"
             ry="15"
             transform="rotate(90)" />
        </g>
        <rect
           style="fill:#ffcc00;stroke-width:0.249049"
           id="rect860"
           width="84.71595"
           height="28.238649"
           x="103.44231"
           y="141.87523"
           ry="11.954362"
           transform="matrix(0.70844207,-0.70576897,0.70844207,0.70576897,0,0)" />
      </g>
    </g>
  </g>
</svg>
